# Blender MTL File: 'Bomb-Omb.blend'
# Material Count: 1

newmtl Bomb-Omb
Ns 323.999994
Ka 1.000000 1.000000 1.000000
Kd 0.800000 0.800000 0.800000
Ks 0.500000 0.500000 0.500000
Ke 0.000000 0.000000 0.000000
Ni 1.450000
d 1.000000
illum 2
map_Kd D:\\Blender\\Textures\\Baked Textures\\Bomb-Omb\\Bomb_Color.png
map_Ns D:\\Blender\\Textures\\Baked Textures\\Bomb-Omb\\Bomb_Roughness.png
