# Blender 3.1.0 MTL File: 'koopa_blender.blend'
# www.blender.org

newmtl Body
Ns 345.981049
Ka 0.238628 0.238628 0.238628
Kd 1.000000 1.000000 1.000000
Ks 0.500000 0.500000 0.500000
Ke 0.000000 0.000000 0.000000
Ni 1.000000
d 1.000000
illum 3

newmtl Eyelids_1/4
Ns 345.981049
Ka 0.238628 0.238628 0.238628
Kd 1.000000 1.000000 1.000000
Ks 0.500000 0.500000 0.500000
Ke 0.000000 0.000000 0.000000
Ni 1.000000
d 0.000000
illum 6

newmtl Eyelids_Blink
Ns 345.981049
Ka 0.238628 0.238628 0.238628
Kd 1.000000 1.000000 1.000000
Ks 0.500000 0.500000 0.500000
Ke 0.000000 0.000000 0.000000
Ni 1.000000
d 0.000000
illum 6

newmtl Eyelids_Default
Ns 345.981049
Ka 0.238628 0.238628 0.238628
Kd 1.000000 1.000000 1.000000
Ks 0.500000 0.500000 0.500000
Ke 0.000000 0.000000 0.000000
Ni 1.000000
d 1.000000
illum 3

newmtl Eyelids_Half
Ns 345.981049
Ka 0.238628 0.238628 0.238628
Kd 1.000000 1.000000 1.000000
Ks 0.500000 0.500000 0.500000
Ke 0.000000 0.000000 0.000000
Ni 1.000000
d 0.000000
illum 6

newmtl Eyelids_Serious
Ns 345.981049
Ka 0.238628 0.238628 0.238628
Kd 1.000000 1.000000 1.000000
Ks 0.500000 0.500000 0.500000
Ke 0.000000 0.000000 0.000000
Ni 1.000000
d 0.000000
illum 6

newmtl Eyes
Ns 345.981049
Ka 0.238628 0.238628 0.238628
Kd 1.000000 1.000000 1.000000
Ks 0.500000 0.500000 0.500000
Ke 0.000000 0.000000 0.000000
Ni 1.000000
d 1.000000
illum 3

newmtl Inner_Shell
Ns 345.981049
Ka 0.238628 0.238628 0.238628
Kd 1.000000 1.000000 1.000000
Ks 0.500000 0.500000 0.500000
Ke 0.000000 0.000000 0.000000
Ni 1.000000
d 1.000000
illum 3

newmtl Pupils
Ns 345.981049
Ka 0.238628 0.238628 0.238628
Kd 1.000000 1.000000 1.000000
Ks 0.500000 0.500000 0.500000
Ke 0.000000 0.000000 0.000000
Ni 1.000000
d 1.000000
illum 3

newmtl Shell
Ns 345.981049
Ka 0.238628 0.238628 0.238628
Kd 1.000000 1.000000 1.000000
Ks 0.500000 0.500000 0.500000
Ke 0.000000 0.000000 0.000000
Ni 1.000000
d 1.000000
illum 3

newmtl Shoes
Ns 345.981049
Ka 0.238628 0.238628 0.238628
Kd 1.000000 1.000000 1.000000
Ks 0.500000 0.500000 0.500000
Ke 0.000000 0.000000 0.000000
Ni 1.000000
d 1.000000
illum 3

newmtl Wings
Ns 345.981049
Ka 0.238628 0.238628 0.238628
Kd 1.000000 1.000000 1.000000
Ks 0.500000 0.500000 0.500000
Ke 0.000000 0.000000 0.000000
Ni 1.000000
d 1.000000
illum 3
