# Blender 3.1.0
# www.blender.org
mtllib stone_frog.mtl
o Golem_mesh
v 0.954720 0.686914 0.010387
v 0.675089 0.686914 -0.799717
v -0.000000 0.686914 -1.135277
v -0.675089 0.686914 -0.799717
v -0.954720 0.686914 0.010387
v -0.740304 0.686913 0.699339
v -0.000000 0.686913 1.156051
v 0.740304 0.686913 0.699339
v 0.750983 1.005153 0.010387
v 0.531025 1.005154 -0.626843
v -0.000000 1.005154 -0.890791
v -0.531025 1.005154 -0.626843
v -0.750983 1.005153 0.010387
v -0.578960 1.005153 0.542468
v -0.000000 1.005153 0.911565
v 0.578960 1.005153 0.542468
v 0.315413 1.217313 0.010387
v 0.223030 1.217313 0.278024
v -0.000000 1.217313 0.388883
v -0.223030 1.217313 0.278024
v -0.315413 1.217313 0.010387
v -0.223030 1.217313 -0.257249
v -0.000000 1.217314 -0.368108
v 0.223030 1.217313 -0.257249
v 0.722872 -0.003314 0.889529
v 0.964168 -0.003314 0.557406
v 0.992810 -0.003314 0.147887
v 0.998927 0.357651 0.150114
v 0.951474 0.691763 0.132842
v 0.867147 0.985274 0.102151
v 0.787990 1.161112 0.493283
v 0.597215 0.985274 0.843787
v 0.681540 0.691763 0.874479
v 0.728996 0.357651 0.891756
v 0.970293 0.357651 0.559634
v 0.922832 0.691763 0.542361
v 0.807827 -0.003314 0.920447
v 1.049124 -0.003314 0.588327
v 1.077766 -0.003314 0.178808
v 1.083254 0.368669 0.180805
v 1.032717 0.718193 0.162413
v 0.948390 1.011709 0.131721
v 0.869241 1.187547 0.522853
v 0.678459 1.011709 0.873362
v 0.762786 0.718193 0.904047
v 0.813315 0.368669 0.922442
v 1.004075 0.718193 0.571932
v -0.722872 -0.003314 0.889529
v -0.964168 -0.003314 0.557406
v -0.992810 -0.003314 0.147887
v -0.998927 0.357651 0.150114
v -0.951474 0.691763 0.132842
v -0.867147 0.985274 0.102151
v -0.787991 1.161112 0.493283
v -0.597216 0.985274 0.843787
v -0.681540 0.691763 0.874480
v -0.728996 0.357651 0.891756
v -0.970293 0.357651 0.559634
v -0.922832 0.691763 0.542361
v -0.807827 -0.003314 0.920447
v -1.049124 -0.003314 0.588327
v -1.077766 -0.003314 0.178808
v -1.083254 0.368669 0.180805
v -1.032717 0.718193 0.162413
v -0.948391 1.011709 0.131721
v -0.869241 1.187547 0.522853
v -0.678459 1.011709 0.873362
v -0.762786 0.718193 0.904047
v -0.813315 0.368669 0.922442
v -0.512452 0.261897 1.011609
v -1.004076 0.718193 0.571932
v 0.867798 -0.003314 -0.442125
v 0.700820 -0.003314 -0.817150
v 0.360485 -0.003314 -1.046714
v 0.365475 0.357651 -1.050901
v 0.326789 0.691763 -1.018440
v 0.258047 0.985274 -0.960761
v 0.557199 1.161112 -0.696640
v 0.765360 0.985274 -0.356169
v 0.834100 0.691763 -0.413850
v 0.872784 0.357651 -0.446312
v 0.705810 0.357651 -0.821337
v 0.667123 0.691763 -0.788876
v 0.937054 -0.003314 -0.500238
v 0.770077 -0.003314 -0.875268
v 0.429741 -0.003314 -1.104825
v 0.434215 0.368669 -1.108580
v 0.393019 0.718193 -1.074012
v 0.324277 1.011709 -1.016333
v 0.623430 1.187547 -0.752215
v 0.831589 1.011709 -0.411743
v 0.900329 0.718193 -0.469424
v 0.941524 0.368669 -0.503992
v -0.515180 0.265296 1.010731
v 0.733352 0.718193 -0.844448
v -0.867798 -0.003314 -0.442125
v -0.700820 -0.003314 -0.817150
v -0.360484 -0.003314 -1.046714
v -0.365474 0.357651 -1.050901
v -0.326789 0.691763 -1.018440
v -0.258047 0.985274 -0.960761
v -0.557199 1.161112 -0.696640
v -0.765360 0.985274 -0.356169
v -0.834100 0.691763 -0.413850
v -0.872784 0.357651 -0.446312
v -0.705810 0.357651 -0.821337
v -0.667123 0.691763 -0.788876
v -0.937054 -0.003314 -0.500237
v -0.770077 -0.003314 -0.875268
v -0.429741 -0.003314 -1.104825
v -0.434215 0.368669 -1.108580
v -0.393019 0.718193 -1.074012
v -0.324277 1.011709 -1.016333
v -0.623430 1.187547 -0.752215
v -0.831589 1.011709 -0.411742
v -0.900329 0.718193 -0.469424
v -0.941523 0.368669 -0.503992
v -0.500474 0.364658 1.012685
v -0.733352 0.718193 -0.844448
v 0.926078 0.686914 0.010387
v 0.654836 0.686914 -0.775418
v -0.000000 0.686914 -1.100907
v -0.654836 0.686914 -0.775418
v -0.926078 0.686914 0.010387
v -0.668980 0.672769 0.668895
v -0.000000 0.665697 1.121681
v 0.668980 0.672769 0.668895
v 0.383994 0.665697 1.001365
v 0.394120 0.686913 1.030707
v -0.383994 0.665697 1.001365
v -0.394120 0.686913 1.030707
v 0.322089 1.005153 0.822027
v -0.322089 1.005153 0.822027
v -0.000000 -0.000000 0.000000
v -0.000000 0.610000 0.340000
v -0.000000 0.610000 1.109000
v -0.000000 0.630000 -1.109000
v -0.000000 0.610000 0.000000
v 0.580000 0.700000 -0.680000
v 0.740000 0.720000 -0.840000
v 0.740000 0.000000 -0.860000
v 0.720000 0.700000 0.500000
v 1.000000 0.720000 0.580000
v 1.000000 -0.000000 0.580000
v -0.580000 0.700000 -0.680000
v -0.740000 0.720000 -0.840000
v -0.740000 0.000000 -0.860000
v -0.720000 0.700000 0.500000
v -1.000000 0.720000 0.580000
v -1.000000 -0.000000 0.580000
v -0.101056 1.217313 -0.257249
v 0.105312 1.217313 -0.257249
v 0.257364 1.217313 0.010387
v -0.267086 1.217313 0.010387
v 0.160353 1.217313 0.246870
v -0.257615 1.217313 0.039116
v 0.245081 1.217313 -0.024571
v -0.156906 1.217313 -0.224381
v 0.103925 1.217313 0.278024
v -0.125857 1.217313 0.278024
v 0.183044 1.217313 0.234358
v -0.005593 1.217313 -0.313438
v -0.181901 1.217313 -0.209671
v 0.175894 1.217313 -0.221501
v -0.188843 1.217313 0.247747
v -0.003042 1.217313 0.337087
v 1.054146 0.337070 0.590155
v 1.007145 0.696965 0.573049
v 1.058266 0.368669 0.538074
v 1.024933 0.368669 0.631175
v 1.056677 0.344179 0.555496
v 1.030507 0.353300 0.623108
v 1.057121 0.382382 0.525384
v 1.047799 0.460422 0.493234
v 1.037865 0.530908 0.485846
v 1.026273 0.604983 0.494553
v 1.016831 0.658556 0.515973
v 1.011367 0.682700 0.542926
v 0.997192 0.691851 0.588035
v 0.987515 0.679232 0.604529
v 0.979060 0.657653 0.621597
v 0.973132 0.619781 0.639287
v 0.972400 0.554977 0.656601
v 0.982258 0.481345 0.661561
v 1.006656 0.400690 0.648275
v 0.728112 0.368669 -0.910337
v 0.735869 0.696838 -0.846560
v 0.792987 0.368669 -0.837601
v 0.774213 0.340939 -0.878737
v 0.751345 0.346614 -0.894265
v 0.731009 0.362380 -0.908269
v 0.786903 0.351587 -0.850630
v 0.713713 0.388832 -0.916453
v 0.696078 0.432663 -0.920529
v 0.685001 0.469888 -0.921360
v 0.674668 0.524185 -0.918643
v 0.674628 0.592890 -0.906413
v 0.684666 0.646407 -0.890095
v 0.710398 0.686530 -0.865580
v 0.750573 0.682481 -0.818756
v 0.767976 0.644844 -0.793354
v 0.780835 0.596773 -0.781952
v 0.792182 0.534807 -0.778998
v 0.798501 0.476411 -0.786040
v 0.800596 0.420662 -0.801605
v 0.796980 0.382833 -0.823481
v -0.730237 0.368669 -0.908904
v -0.796201 0.368669 -0.830382
v -0.735617 0.698974 -0.846349
v -0.774201 0.339918 -0.878726
v -0.753217 0.680612 -0.813496
v -0.771869 0.636246 -0.787737
v -0.787459 0.577113 -0.774224
v -0.796460 0.519226 -0.775055
v -0.801886 0.468837 -0.781191
v -0.803520 0.413029 -0.797812
v -0.784634 0.346716 -0.855546
v -0.697616 0.427609 -0.920393
v -0.487955 0.313996 1.038172
v -0.486227 0.291453 1.045942
v -0.519996 0.287089 1.015751
v -0.705688 0.676969 -0.870463
v -0.686562 0.644393 -0.889175
v -0.678799 0.612021 -0.900187
v -0.675915 0.579698 -0.907898
v -0.676170 0.541277 -0.914581
v -0.682752 0.482766 -0.920580
v -1.058236 0.368669 0.538512
v -1.054218 0.341987 0.590182
v -1.022784 0.368669 0.634133
v -1.006806 0.699309 0.572925
v -1.054386 0.405224 0.516062
v -1.048850 0.449952 0.500391
v -1.040935 0.506304 0.494102
v -1.032647 0.562513 0.493442
v -1.024080 0.615225 0.504194
v -1.016057 0.659853 0.524304
v -1.010453 0.685940 0.549126
v -0.984944 0.679915 0.607897
v -0.973846 0.645650 0.631795
v -0.969049 0.590916 0.652171
v -0.971092 0.547436 0.660300
v -0.978701 0.486992 0.665036
v -0.992786 0.435213 0.658678
v -1.006873 0.395101 0.649382
v -1.056072 0.347519 0.564875
v -1.036342 0.345804 0.614885
v -0.470195 0.254086 1.043865
v -0.512913 0.326405 1.011585
v -0.486804 0.384090 1.009295
v 0.490915 0.325975 1.032146
v 0.499812 0.361978 1.014034
v 0.525959 0.286319 1.010421
v 0.487657 0.291268 1.044663
v 0.471852 0.383080 1.018106
v 0.482866 0.359658 1.022450
v 0.513417 0.322504 1.004947
v 0.491768 0.319185 1.032356
v 0.522691 0.268732 1.005849
v 0.476410 0.256963 1.039840
vn 0.0062 0.0057 -0.0054
vn 0.0048 0.0077 -0.0041
vn 0.0066 0.0075 -0.0001
vn 0.0084 0.0055 -0.0001
vn -0.0000 0.0061 -0.0079
vn -0.0000 0.0080 -0.0060
vn -0.0048 0.0077 -0.0041
vn -0.0062 0.0057 -0.0054
vn -0.0066 0.0075 -0.0001
vn -0.0084 0.0055 -0.0001
vn -0.0054 0.0075 0.0038
vn -0.0082 0.0013 0.0055
vn 0.0053 0.0077 0.0036
vn 0.0082 0.0011 0.0056
vn 0.0016 0.0098 -0.0013
vn -0.0007 0.0100 -0.0002
vn -0.0000 0.0100 -0.0000
vn -0.0008 0.0100 0.0001
vn 0.0018 0.0098 -0.0000
vn 0.0011 0.0099 0.0011
vn 0.0035 0.0071 0.0061
vn -0.0004 0.0096 0.0027
vn -0.0002 0.0078 0.0063
vn -0.0035 0.0069 0.0063
vn -0.0016 0.0098 0.0015
vn -0.0018 0.0098 -0.0000
vn -0.0025 0.0094 -0.0024
vn -0.0000 0.0097 -0.0025
vn -0.0081 -0.0006 -0.0059
vn -0.0094 -0.0007 -0.0034
vn -0.0094 0.0002 -0.0034
vn -0.0081 0.0002 -0.0059
vn -0.0079 -0.0021 -0.0057
vn -0.0092 -0.0022 -0.0033
vn -0.0078 -0.0028 -0.0056
vn -0.0086 0.0015 -0.0049
vn -0.0100 -0.0006 -0.0007
vn -0.0100 0.0002 -0.0007
vn -0.0097 -0.0021 -0.0007
vn -0.0097 0.0015 -0.0018
vn -0.0096 -0.0028 -0.0007
vn -0.0000 -0.0100 -0.0000
vn 0.0065 -0.0073 0.0024
vn 0.0057 -0.0071 0.0041
vn 0.0070 -0.0071 0.0005
vn 0.0034 -0.0000 -0.0094
vn 0.0084 0.0004 -0.0055
vn 0.0084 -0.0001 -0.0054
vn 0.0083 0.0013 -0.0055
vn 0.0013 0.0054 -0.0083
vn 0.0055 0.0056 -0.0062
vn 0.0021 0.0098 -0.0006
vn -0.0061 0.0071 -0.0035
vn 0.0003 0.0056 0.0083
vn 0.0012 0.0098 0.0018
vn -0.0069 0.0071 -0.0012
vn -0.0044 0.0054 0.0072
vn 0.0028 0.0013 0.0095
vn -0.0034 -0.0000 0.0094
vn 0.0029 0.0004 0.0096
vn 0.0029 -0.0001 0.0096
vn 0.0072 -0.0005 0.0069
vn 0.0081 -0.0002 0.0059
vn 0.0081 0.0002 0.0059
vn 0.0025 -0.0054 0.0081
vn 0.0092 0.0022 0.0033
vn 0.0062 0.0067 0.0040
vn 0.0071 -0.0054 -0.0046
vn 0.0100 0.0002 0.0006
vn 0.0100 -0.0002 0.0007
vn 0.0093 0.0015 0.0033
vn 0.0099 0.0015 0.0007
vn 0.0074 0.0067 0.0009
vn 0.0094 0.0002 -0.0034
vn 0.0094 -0.0007 -0.0034
vn 0.0081 -0.0006 -0.0059
vn 0.0081 0.0002 -0.0059
vn 0.0092 -0.0022 -0.0033
vn 0.0079 -0.0021 -0.0057
vn 0.0086 0.0015 -0.0049
vn 0.0078 -0.0028 -0.0056
vn 0.0100 0.0002 -0.0007
vn 0.0100 -0.0006 -0.0007
vn 0.0097 -0.0021 -0.0007
vn 0.0096 -0.0028 -0.0007
vn 0.0097 0.0015 -0.0018
vn -0.0057 -0.0071 0.0041
vn -0.0065 -0.0073 0.0024
vn -0.0070 -0.0071 0.0005
vn -0.0084 -0.0001 -0.0054
vn -0.0084 0.0004 -0.0055
vn -0.0034 -0.0000 -0.0094
vn -0.0083 0.0013 -0.0055
vn -0.0055 0.0056 -0.0062
vn -0.0013 0.0054 -0.0083
vn -0.0021 0.0098 -0.0006
vn 0.0061 0.0071 -0.0035
vn 0.0069 0.0071 -0.0012
vn -0.0012 0.0098 0.0018
vn -0.0003 0.0056 0.0083
vn 0.0044 0.0054 0.0072
vn -0.0028 0.0013 0.0095
vn 0.0034 -0.0000 0.0094
vn -0.0029 0.0004 0.0096
vn -0.0029 -0.0001 0.0096
vn -0.0081 0.0002 0.0059
vn -0.0081 -0.0002 0.0059
vn -0.0100 0.0007 -0.0005
vn -0.0025 -0.0054 0.0081
vn -0.0092 0.0022 0.0033
vn -0.0093 0.0015 0.0033
vn -0.0080 0.0015 0.0058
vn -0.0062 0.0067 0.0040
vn -0.0100 0.0002 0.0007
vn -0.0099 0.0015 0.0007
vn -0.0074 0.0067 0.0009
vn -0.0091 -0.0006 0.0041
vn -0.0076 -0.0007 0.0064
vn -0.0077 0.0002 0.0064
vn -0.0091 0.0002 0.0041
vn -0.0089 -0.0021 0.0040
vn -0.0075 -0.0022 0.0063
vn -0.0088 -0.0028 0.0039
vn -0.0085 0.0015 0.0050
vn -0.0056 -0.0006 0.0083
vn -0.0056 0.0002 0.0083
vn -0.0055 -0.0021 0.0081
vn -0.0064 0.0015 0.0075
vn -0.0054 -0.0028 0.0080
vn 0.0053 -0.0073 -0.0044
vn 0.0064 -0.0071 -0.0029
vn 0.0039 -0.0071 -0.0058
vn -0.0064 -0.0000 -0.0077
vn -0.0005 0.0004 -0.0100
vn -0.0005 -0.0001 -0.0100
vn -0.0006 0.0013 -0.0099
vn -0.0066 0.0054 -0.0052
vn -0.0026 0.0056 -0.0079
vn 0.0006 0.0098 -0.0021
vn -0.0061 0.0071 0.0035
vn 0.0073 0.0056 0.0039
vn 0.0022 0.0098 -0.0002
vn -0.0045 0.0071 0.0054
vn 0.0040 0.0054 0.0074
vn 0.0096 0.0013 0.0023
vn 0.0064 -0.0000 0.0077
vn 0.0097 0.0004 0.0023
vn 0.0097 -0.0001 0.0022
vn 0.0096 -0.0006 -0.0029
vn 0.0091 -0.0002 -0.0041
vn 0.0091 0.0001 -0.0041
vn 0.0082 -0.0054 0.0019
vn 0.0075 0.0022 -0.0063
vn 0.0066 0.0067 -0.0034
vn -0.0004 -0.0054 -0.0084
vn 0.0055 0.0003 -0.0083
vn 0.0056 -0.0002 -0.0083
vn 0.0076 0.0015 -0.0063
vn 0.0055 0.0015 -0.0082
vn 0.0045 0.0067 -0.0059
vn 0.0077 0.0002 0.0064
vn 0.0076 -0.0007 0.0064
vn 0.0091 -0.0006 0.0041
vn 0.0091 0.0002 0.0041
vn 0.0075 -0.0022 0.0063
vn 0.0089 -0.0021 0.0040
vn 0.0085 0.0015 0.0050
vn 0.0088 -0.0028 0.0039
vn 0.0056 0.0002 0.0083
vn 0.0056 -0.0006 0.0083
vn 0.0055 -0.0021 0.0081
vn 0.0054 -0.0028 0.0080
vn 0.0064 0.0015 0.0075
vn -0.0064 -0.0071 -0.0029
vn -0.0053 -0.0073 -0.0044
vn -0.0039 -0.0071 -0.0058
vn 0.0005 -0.0001 -0.0100
vn 0.0005 0.0004 -0.0100
vn 0.0064 -0.0000 -0.0077
vn 0.0006 0.0013 -0.0099
vn 0.0026 0.0056 -0.0079
vn 0.0066 0.0054 -0.0052
vn -0.0006 0.0098 -0.0021
vn 0.0061 0.0071 0.0035
vn 0.0045 0.0071 0.0054
vn -0.0022 0.0098 -0.0002
vn -0.0073 0.0056 0.0039
vn -0.0040 0.0054 0.0074
vn -0.0096 0.0013 0.0023
vn -0.0064 -0.0000 0.0077
vn -0.0097 0.0004 0.0023
vn -0.0097 -0.0001 0.0022
vn -0.0091 0.0002 -0.0040
vn -0.0091 -0.0002 -0.0041
vn -0.0048 0.0017 -0.0086
vn -0.0082 -0.0054 0.0019
vn -0.0075 0.0022 -0.0063
vn -0.0076 0.0015 -0.0064
vn -0.0090 0.0015 -0.0040
vn -0.0066 0.0067 -0.0034
vn -0.0056 0.0002 -0.0083
vn -0.0055 0.0015 -0.0082
vn -0.0045 0.0067 -0.0059
vn 0.0009 -0.0100 0.0002
vn -0.0009 -0.0100 0.0002
vn -0.0034 -0.0091 0.0023
vn -0.0074 -0.0067 0.0002
vn -0.0065 -0.0056 0.0052
vn 0.0074 -0.0067 0.0002
vn 0.0030 -0.0092 0.0025
vn 0.0063 -0.0057 0.0054
vn 0.0039 -0.0091 0.0013
vn 0.0069 -0.0043 0.0058
vn 0.0080 -0.0029 0.0052
vn 0.0054 -0.0049 0.0069
vn 0.0029 -0.0082 0.0049
vn -0.0000 -0.0084 0.0055
vn -0.0003 -0.0083 0.0056
vn 0.0017 -0.0073 0.0066
vn -0.0019 -0.0072 0.0067
vn -0.0033 -0.0082 0.0047
vn -0.0055 -0.0048 0.0069
vn -0.0081 -0.0028 0.0052
vn -0.0071 -0.0043 0.0056
vn -0.0040 -0.0091 0.0010
vn 0.0058 0.0013 0.0080
vn 0.0001 0.0059 0.0081
vn 0.0045 0.0056 0.0070
vn -0.0041 0.0056 0.0072
vn -0.0058 0.0014 0.0080
vn 0.0003 0.0100 0.0008
vn 0.0005 0.0100 0.0007
vn 0.0008 0.0100 -0.0001
vn 0.0005 0.0100 0.0003
vn 0.0006 0.0100 -0.0002
vn -0.0005 0.0100 0.0005
vn -0.0007 0.0100 0.0005
vn 0.0080 0.0015 0.0058
vn 0.0072 -0.0011 0.0068
vn 0.0061 -0.0030 0.0073
vn 0.0064 -0.0006 0.0077
vn 0.0090 0.0015 -0.0040
vn 0.0070 0.0030 0.0065
vn 0.0072 0.0022 0.0065
vn 0.0050 0.0023 0.0084
vn 0.0004 -0.0054 -0.0084
vn 0.0038 0.0034 0.0086
vn -0.0068 0.0017 0.0072
vn -0.0030 0.0037 0.0088
vn -0.0034 0.0034 0.0088
vn -0.0067 0.0020 0.0072
vn -0.0062 -0.0010 0.0078
vn -0.0070 -0.0008 0.0071
vn -0.0061 -0.0030 0.0073
vn -0.0100 -0.0002 0.0007
vn -0.0071 -0.0054 -0.0046
vt 0.199190 0.412027
vt 0.071592 0.346169
vt 0.034603 0.235498
vt 0.066150 0.122400
vt 0.193229 0.050048
vt 0.332003 0.069563
vt 0.433511 0.233587
vt 0.332277 0.392581
vt 0.204184 0.345807
vt 0.117976 0.304294
vt 0.089617 0.234259
vt 0.114931 0.162757
vt 0.199887 0.117862
vt 0.287994 0.133544
vt 0.356191 0.228823
vt 0.291733 0.329318
vt 0.210568 0.276267
vt 0.249761 0.264019
vt 0.265627 0.230082
vt 0.247108 0.197975
vt 0.208570 0.187084
vt 0.172495 0.202612
vt 0.158355 0.232856
vt 0.173429 0.262506
vt 0.985230 0.507756
vt 0.015871 0.932676
vt 0.606767 0.942028
vt 0.905619 0.506244
vt 0.121541 0.962979
vt 0.824785 0.506443
vt 0.227210 0.932682
vt 0.607094 0.923198
vt 0.825850 0.577591
vt 0.487580 0.902688
vt 0.825748 0.643771
vt 0.374082 0.902474
vt 0.824785 0.703551
vt 0.272070 0.917350
vt 0.225777 0.877079
vt 0.904007 0.734206
vt 0.120057 0.849995
vt 0.984509 0.704186
vt 0.014338 0.877069
vt 0.271741 0.936178
vt 0.983577 0.643843
vt 0.373172 0.954606
vt 0.983550 0.577759
vt 0.486609 0.958352
vt 0.905013 0.575634
vt 0.904497 0.639607
vt 0.015871 0.956885
vt 0.610310 0.972186
vt 0.824836 0.747983
vt 0.121541 0.987188
vt 0.904575 0.746764
vt 0.227210 0.956891
vt 0.611689 0.893180
vt 0.985537 0.747259
vt 0.488483 0.872334
vt 0.984221 0.820663
vt 0.369701 0.872424
vt 0.984087 0.889998
vt 0.267688 0.887300
vt 0.225778 0.854454
vt 0.984812 0.949872
vt 0.120060 0.827368
vt 0.905349 0.980254
vt 0.014338 0.854444
vt 0.266313 0.966057
vt 0.824837 0.949916
vt 0.367745 0.984483
vt 0.825964 0.889487
vt 0.486452 0.988717
vt 0.826254 0.820240
vt 0.905218 0.885474
vt 0.824220 0.507465
vt 0.014693 0.844920
vt 0.607095 0.923135
vt 0.903834 0.506244
vt 0.120363 0.814620
vt 0.984669 0.506738
vt 0.226031 0.844920
vt 0.606765 0.942085
vt 0.983344 0.577883
vt 0.486608 0.958410
vt 0.983202 0.644063
vt 0.373171 0.954665
vt 0.983947 0.703845
vt 0.271740 0.936237
vt 0.227322 0.903218
vt 0.904614 0.734210
vt 0.121603 0.930298
vt 0.824222 0.703897
vt 0.015883 0.903220
vt 0.272071 0.917288
vt 0.825376 0.643556
vt 0.374083 0.902411
vt 0.825642 0.577474
vt 0.487581 0.902625
vt 0.904187 0.575636
vt 0.904469 0.639611
vt 0.014694 0.820713
vt 0.611690 0.893118
vt 0.985253 0.748267
vt 0.120363 0.790411
vt 0.905519 0.746764
vt 0.226031 0.820711
vt 0.610309 0.972243
vt 0.824555 0.746970
vt 0.486451 0.988778
vt 0.825609 0.820378
vt 0.367744 0.984542
vt 0.825495 0.889713
vt 0.266312 0.966116
vt 0.227322 0.925844
vt 0.824555 0.949584
vt 0.121604 0.952925
vt 0.903910 0.980250
vt 0.015882 0.925847
vt 0.267689 0.887237
vt 0.984529 0.950200
vt 0.369702 0.872363
vt 0.983619 0.889767
vt 0.488482 0.872273
vt 0.983576 0.820519
vt 0.201263 0.571907
vt 0.904380 0.885470
vt 0.984928 0.507221
vt 0.015883 0.932676
vt 0.606766 0.942042
vt 0.905319 0.505708
vt 0.121553 0.962974
vt 0.824484 0.505907
vt 0.227222 0.932676
vt 0.607096 0.923228
vt 0.825548 0.577055
vt 0.487580 0.902720
vt 0.825448 0.643236
vt 0.374081 0.902506
vt 0.824484 0.703015
vt 0.272069 0.917380
vt 0.225909 0.877073
vt 0.903706 0.733669
vt 0.120188 0.849994
vt 0.984209 0.703649
vt 0.014467 0.877073
vt 0.271741 0.936194
vt 0.983276 0.643307
vt 0.373171 0.954621
vt 0.983249 0.577223
vt 0.486607 0.958368
vt 0.904712 0.575098
vt 0.904196 0.639071
vt 0.015883 0.956885
vt 0.610310 0.972199
vt 0.824273 0.747695
vt 0.121554 0.987185
vt 0.904011 0.746477
vt 0.227222 0.956885
vt 0.611689 0.893212
vt 0.984973 0.746974
vt 0.488482 0.872368
vt 0.983656 0.820377
vt 0.369701 0.872457
vt 0.983522 0.889712
vt 0.267687 0.887332
vt 0.225907 0.854448
vt 0.984248 0.949585
vt 0.120188 0.827368
vt 0.904784 0.979968
vt 0.014467 0.854448
vt 0.266313 0.966071
vt 0.824273 0.949629
vt 0.367745 0.984498
vt 0.825399 0.889199
vt 0.486449 0.988733
vt 0.825690 0.819952
vt 0.200071 0.573357
vt 0.904653 0.885187
vt 0.824205 0.507644
vt 0.015027 0.844920
vt 0.607095 0.923182
vt 0.903818 0.506423
vt 0.120697 0.814622
vt 0.984653 0.506917
vt 0.226366 0.844920
vt 0.606766 0.941994
vt 0.983327 0.578062
vt 0.486609 0.958321
vt 0.983186 0.644242
vt 0.373172 0.954574
vt 0.983931 0.704024
vt 0.271742 0.936146
vt 0.227327 0.903194
vt 0.904598 0.734388
vt 0.121607 0.930274
vt 0.824205 0.704075
vt 0.015886 0.903194
vt 0.272070 0.917335
vt 0.825359 0.643736
vt 0.374082 0.902458
vt 0.825627 0.577653
vt 0.487579 0.902672
vt 0.904171 0.575815
vt 0.904453 0.639790
vt 0.015027 0.820711
vt 0.611690 0.893165
vt 0.985684 0.748267
vt 0.120697 0.790411
vt 0.905950 0.746764
vt 0.226364 0.820711
vt 0.610311 0.972152
vt 0.824988 0.746970
vt 0.486452 0.988686
vt 0.826041 0.820379
vt 0.367746 0.984451
vt 0.825927 0.889714
vt 0.266313 0.966024
vt 0.227327 0.925819
vt 0.824988 0.949584
vt 0.121607 0.952899
vt 0.904343 0.980250
vt 0.015886 0.925819
vt 0.267688 0.887284
vt 0.984961 0.950200
vt 0.369701 0.872410
vt 0.984051 0.889767
vt 0.488481 0.872320
vt 0.984008 0.820519
vt 0.203295 0.620971
vt 0.904812 0.885470
vt 0.196952 0.432648
vt 0.060409 0.364788
vt 0.013053 0.236016
vt 0.053960 0.103991
vt 0.190462 0.028520
vt 0.345190 0.053018
vt 0.447283 0.234104
vt 0.342890 0.407353
vt 0.420288 0.332610
vt 0.409622 0.322107
vt 0.423062 0.135819
vt 0.410967 0.145765
vt 0.341012 0.285091
vt 0.338588 0.174718
vt 0.172750 0.218990
vt 0.173182 0.246700
vt 0.210384 0.268060
vt 0.208723 0.193916
vt 0.244966 0.255063
vt 0.212992 0.195342
vt 0.205595 0.266646
vt 0.177171 0.211657
vt 0.249053 0.246384
vt 0.247686 0.212362
vt 0.243192 0.258233
vt 0.165547 0.231959
vt 0.179090 0.207988
vt 0.178265 0.256358
vt 0.243014 0.203352
vt 0.257576 0.230059
vt 0.904903 0.812308
vt 0.905201 0.881400
vt 0.915050 0.818682
vt 0.895256 0.818620
vt 0.911652 0.813843
vt 0.897121 0.815609
vt 0.917374 0.821406
vt 0.922843 0.836664
vt 0.923596 0.850302
vt 0.921208 0.864492
vt 0.916567 0.874593
vt 0.911143 0.878961
vt 0.901691 0.880571
vt 0.897910 0.878317
vt 0.894099 0.874333
vt 0.890339 0.867195
vt 0.886995 0.854825
vt 0.886699 0.840620
vt 0.890818 0.824924
vt 0.915187 0.818416
vt 0.904636 0.881089
vt 0.895680 0.818310
vt 0.904342 0.812766
vt 0.909712 0.813990
vt 0.914497 0.817175
vt 0.898422 0.814949
vt 0.917997 0.822403
vt 0.920925 0.830969
vt 0.922503 0.838213
vt 0.923450 0.848735
vt 0.921619 0.861918
vt 0.917859 0.872059
vt 0.910820 0.879424
vt 0.898460 0.878604
vt 0.892290 0.871632
vt 0.888855 0.862508
vt 0.886908 0.850627
vt 0.887144 0.839349
vt 0.889227 0.828524
vt 0.893017 0.821115
vt 0.895012 0.818649
vt 0.915539 0.818666
vt 0.904841 0.881782
vt 0.905384 0.812854
vt 0.912181 0.878607
vt 0.918599 0.870367
vt 0.922754 0.859144
vt 0.923854 0.848011
vt 0.923671 0.838273
vt 0.921404 0.827416
vt 0.910262 0.814288
vt 0.888960 0.830211
vt 0.214205 0.598177
vt 0.216972 0.587785
vt 0.198976 0.583557
vt 0.897326 0.877910
vt 0.892041 0.871888
vt 0.889397 0.865767
vt 0.887884 0.859597
vt 0.886941 0.852220
vt 0.886944 0.840926
vt 0.894872 0.818642
vt 0.904948 0.813253
vt 0.915281 0.818671
vt 0.904409 0.881846
vt 0.890854 0.825820
vt 0.888220 0.834535
vt 0.887505 0.845434
vt 0.887875 0.856263
vt 0.890416 0.866320
vt 0.894688 0.874721
vt 0.899702 0.879500
vt 0.912524 0.878512
vt 0.917833 0.872166
vt 0.922065 0.861798
vt 0.923507 0.853463
vt 0.923949 0.841805
vt 0.921854 0.831731
vt 0.919196 0.823897
vt 0.900014 0.814420
vt 0.910803 0.814137
vt 0.222406 0.571358
vt 0.199545 0.602521
vt 0.206626 0.630292
vt 0.593860 0.601422
vt 0.601258 0.618137
vt 0.609955 0.580617
vt 0.589603 0.585024
vt 0.591536 0.628592
vt 0.593865 0.617393
vt 0.607996 0.599154
vt 0.594097 0.598207
vt 0.609452 0.572344
vt 0.586502 0.569707
s 1
usemtl Golem_surf
f 2/2/1 10/10/2 9/9/3 1/1/4
f 3/3/5 11/11/6 10/10/2 2/2/1
f 12/12/7 11/11/6 3/3/5 4/4/8
f 13/13/9 12/12/7 4/4/8 5/5/10
f 14/14/11 13/13/9 5/5/10 6/6/12
f 1/1/4 9/9/3 16/16/13 8/8/14
f 24/24/15 152/247/16 164/259/17 157/252/18 17/17/19
f 16/16/13 9/9/3 17/17/19 18/18/20
f 132/244/21 16/16/13 18/18/20 19/19/22 15/15/23
f 14/14/11 133/245/24 15/15/23 19/19/22 20/20/25
f 21/21/26 13/13/9 14/14/11 20/20/25
f 22/22/27 12/12/7 13/13/9 21/21/26
f 23/23/28 11/11/6 12/12/7 22/22/27
f 10/10/2 11/11/6 23/23/28 24/24/15
f 9/9/3 10/10/2 24/24/15 17/17/19
f 34/47/29 35/49/30 26/28/31 25/25/32
f 33/45/33 36/50/34 35/49/30 34/47/29
f 32/42/35 31/40/36 36/50/34 33/45/33
f 35/49/30 28/33/37 27/30/38 26/28/31
f 36/50/34 29/35/39 28/33/37 35/49/30
f 31/40/40 30/37/41 29/35/39 36/50/34
f 26/29/42 38/54/43 37/51/44 25/26/42
f 27/31/42 39/56/45 38/54/43 26/29/42
f 28/34/46 40/59/47 39/57/48 27/32/46
f 29/36/46 41/61/49 40/59/47 28/34/46
f 30/38/50 42/63/51 41/61/49 29/36/46
f 43/66/52 42/64/51 30/39/50 31/41/53
f 44/68/54 43/66/55 31/41/56 32/43/57
f 45/71/58 44/69/54 32/44/57 33/46/59
f 46/73/60 45/71/58 33/46/59 34/48/59
f 37/52/61 46/73/60 34/48/59 25/27/59
f 38/55/43 167/262/62 172/267/63 170/265/64 46/74/60 37/53/65
f 47/75/66 43/67/67 44/70/54 45/72/58
f 39/58/68 40/60/47 169/264/69 171/266/70 167/262/62 38/55/43
f 40/60/47 41/62/49 47/75/66 168/263/71 178/273/72 177/272/72 176/271/72 175/270/72 174/269/72 173/268/72 169/264/69
f 41/62/49 42/65/51 43/67/73 47/75/66
f 49/79/74 58/100/75 57/98/76 48/76/77
f 58/100/75 59/101/78 56/96/79 57/98/76
f 59/101/78 54/91/80 55/93/81 56/96/79
f 50/81/82 51/84/83 58/100/75 49/79/74
f 51/84/83 52/86/84 59/101/78 58/100/75
f 52/86/84 53/88/85 54/91/86 59/101/78
f 60/102/87 61/105/88 49/80/42 48/77/42
f 61/105/88 62/107/89 50/82/42 49/80/42
f 62/108/90 63/110/91 51/85/92 50/83/92
f 63/110/91 64/112/93 52/87/92 51/85/92
f 64/112/93 65/114/94 53/89/95 52/87/92
f 53/90/95 65/115/94 66/117/96 54/92/97
f 54/92/98 66/117/99 67/119/100 55/94/101
f 55/95/101 67/120/100 68/122/102 56/97/103
f 56/97/103 68/122/102 69/124/104 57/99/103
f 57/99/103 69/124/104 60/103/105 48/78/103
f 69/125/104 230/325/106 247/342/107 229/324/108 61/106/88 60/104/109
f 68/123/102 71/127/110 231/326/111 239/334/112 240/335/112 241/336/112 242/337/112 243/338/112 244/339/112 245/340/112 230/325/106 69/125/104
f 67/121/100 66/118/113 71/127/110 68/123/102
f 71/127/110 64/113/93 63/111/91 228/323/114 232/327/115 233/328/115 234/329/115 235/330/115 236/331/115 237/332/115 238/333/115 231/326/111
f 66/118/116 65/116/94 64/113/93 71/127/110
f 81/150/117 82/152/118 73/131/119 72/128/120
f 80/148/121 83/153/122 82/152/118 81/150/117
f 79/145/123 78/143/124 83/153/122 80/148/121
f 82/152/118 75/136/125 74/133/126 73/131/119
f 83/153/122 76/138/127 75/136/125 82/152/118
f 78/143/128 77/140/129 76/138/127 83/153/122
f 73/132/42 85/157/130 84/154/131 72/129/42
f 74/134/42 86/159/132 85/157/130 73/132/42
f 75/137/133 87/162/134 86/160/135 74/135/133
f 76/139/133 88/164/136 87/162/134 75/137/133
f 77/141/137 89/166/138 88/164/136 76/139/133
f 90/169/139 89/167/138 77/142/137 78/144/140
f 91/171/141 90/169/142 78/144/143 79/146/144
f 92/174/145 91/172/141 79/147/144 80/149/146
f 93/176/147 92/174/145 80/149/146 81/151/146
f 84/155/148 93/176/147 81/151/146 72/130/146
f 85/158/130 189/284/149 192/287/150 188/283/151 93/177/147 84/156/152
f 95/179/153 90/170/154 91/173/141 92/175/145
f 86/161/155 87/163/134 186/281/156 191/286/157 190/285/157 189/284/149 85/158/130
f 87/163/134 88/165/136 95/179/153 187/282/158 199/294/159 198/293/159 197/292/159 196/291/159 195/290/159 194/289/159 193/288/159 186/281/156
f 88/165/136 89/168/138 90/170/160 95/179/153
f 97/183/161 106/204/162 105/202/163 96/180/164
f 106/204/162 107/205/165 104/200/166 105/202/163
f 107/205/165 102/195/167 103/197/168 104/200/166
f 98/185/169 99/188/170 106/204/162 97/183/161
f 99/188/170 100/190/171 107/205/165 106/204/162
f 100/190/171 101/192/172 102/195/173 107/205/165
f 108/206/174 109/209/175 97/184/42 96/181/42
f 109/209/175 110/211/176 98/186/42 97/184/42
f 110/212/177 111/214/178 99/189/179 98/187/179
f 111/214/178 112/216/180 100/191/179 99/189/179
f 112/216/180 113/218/181 101/193/182 100/191/179
f 101/194/182 113/219/181 114/221/183 102/196/184
f 102/196/185 114/221/186 115/223/187 103/198/188
f 103/199/188 115/224/187 116/226/189 104/201/190
f 104/201/190 116/226/189 117/228/191 105/203/190
f 105/203/190 117/228/191 108/207/192 96/182/190
f 117/229/191 208/303/193 217/312/194 210/305/195 109/210/175 108/208/196
f 116/227/189 119/231/197 209/304/198 211/306/199 212/307/199 213/308/199 214/309/199 215/310/199 216/311/199 208/303/193 117/229/191
f 115/225/187 114/222/200 119/231/197 116/227/189
f 119/231/197 112/217/180 111/215/178 207/302/201 218/313/202 227/322/202 226/321/202 225/320/202 224/319/202 223/318/202 222/317/202 209/304/198
f 114/222/203 113/220/181 112/217/180 119/231/197
f 121/233/42 2/2/42 1/1/204 120/232/204
f 122/234/42 3/3/42 2/2/42 121/233/42
f 4/4/42 3/3/42 122/234/42 123/235/42
f 5/5/205 4/4/42 123/235/42 124/236/205
f 6/6/206 5/5/205 124/236/207 125/237/208
f 120/232/209 1/1/204 8/8/210 127/239/211
f 128/240/212 127/239/213 8/8/214 129/241/215
f 129/241/216 7/7/217 126/238/218 128/240/219
f 130/242/220 126/238/218 7/7/217 131/243/221
f 131/243/222 6/6/223 125/237/224 130/242/225
f 129/241/226 8/8/14 16/16/13 132/244/21
f 132/244/21 15/15/23 7/7/227 129/241/228
f 131/243/229 7/7/227 15/15/23 133/245/24
f 133/245/24 14/14/11 6/6/12 131/243/230
f 21/21/26 156/251/231 154/249/232
f 22/22/27 21/21/26 154/249/232 163/258/17 158/253/233
f 21/21/26 20/20/25 160/255/234 165/260/17 156/251/231
f 20/20/25 19/19/22 18/18/20 159/254/235 166/261/17 160/255/234
f 24/24/15 23/23/28 22/22/27 151/246/236 162/257/17 152/247/16
f 153/248/232 161/256/17 155/250/237 18/18/20 17/17/19
f 157/252/18 153/248/232 17/17/19
f 158/253/233 151/246/236 22/22/27
f 155/250/237 159/254/235 18/18/20
f 170/265/64 185/280/238 184/279/238 183/278/238 182/277/238 181/276/238 180/275/238 179/274/238 168/263/71 47/75/66 45/72/58 46/74/60
f 254/349/239 260/355/240 259/354/240 253/348/241
f 188/283/151 206/301/242 205/300/242 204/299/242 203/298/242 202/297/242 201/296/242 200/295/242 187/282/158 95/179/153 92/175/145 93/177/147
f 251/346/243 258/353/244 254/349/239 253/348/241 257/352/244 252/347/245
f 210/305/195 207/302/201 111/215/178 110/213/246 109/210/175
f 252/347/245 255/350/247 256/351/247 251/346/243
f 219/314/248 250/345/249 118/230/250
f 118/230/250 249/344/251 221/316/252 220/315/253 219/314/248
f 221/316/252 94/178/254 70/126/254 248/343/254 220/315/253
f 229/324/108 246/341/255 228/323/114 63/111/91 62/109/256 61/106/88
o Golem_mesh.001
v -0.101056 1.217313 -0.257249
v 0.105312 1.217313 -0.257249
v 0.257364 1.217313 0.010387
v -0.267086 1.217313 0.010387
v 0.160353 1.217313 0.246870
v -0.257615 1.217313 0.039116
v 0.245081 1.217313 -0.024571
v -0.156906 1.217313 -0.224381
v 0.103925 1.217313 0.278024
v -0.125857 1.217313 0.278024
v 0.183044 1.217313 0.234358
v -0.005593 1.217313 -0.313438
v -0.181901 1.217313 -0.209671
v 0.175894 1.217313 -0.221501
v -0.188843 1.217313 0.247747
v -0.003042 1.217313 0.337087
vn 0.0005 0.0100 0.0007
vn 0.0003 0.0100 0.0008
vn -0.0007 0.0100 0.0005
vn -0.0000 0.0100 -0.0000
vn -0.0007 0.0100 -0.0002
vn -0.0005 0.0100 0.0005
vn 0.0008 0.0100 -0.0001
vn -0.0008 0.0100 0.0001
vn 0.0005 0.0100 0.0003
vn 0.0006 0.0100 -0.0002
vt 0.172750 0.218990
vt 0.173182 0.246700
vt 0.210384 0.268060
vt 0.208723 0.193916
vt 0.244966 0.255063
vt 0.212992 0.195342
vt 0.205595 0.266646
vt 0.177171 0.211657
vt 0.249053 0.246384
vt 0.247686 0.212362
vt 0.243192 0.258233
vt 0.165547 0.231959
vt 0.179090 0.207988
vt 0.178265 0.256358
vt 0.243014 0.203352
vt 0.257576 0.230059
s 1
usemtl Golem_surf.001
f 264/359/257 266/361/258 265/360/259 271/366/260 263/358/257
f 262/357/261 272/367/260 261/356/262
f 268/363/263 273/368/260 264/359/257 263/358/257 267/362/264
f 267/362/264 274/369/260 262/357/261 261/356/262 268/363/263
f 266/361/258 275/370/260 270/365/265 269/364/266 265/360/259
f 270/365/265 276/371/260 269/364/266
o Golem_mesh.002
v 1.054612 0.368669 0.590325
v 1.054146 0.337070 0.590155
v 1.007145 0.696965 0.573049
v 1.058266 0.368669 0.538074
v 1.024933 0.368669 0.631175
v 1.056677 0.344179 0.555496
v 1.030507 0.353300 0.623108
v 1.057121 0.382382 0.525384
v 1.047799 0.460422 0.493234
v 1.037865 0.530908 0.485846
v 1.026273 0.604983 0.494553
v 1.016831 0.658556 0.515973
v 1.011367 0.682700 0.542926
v 0.997192 0.691851 0.588035
v 0.987515 0.679232 0.604529
v 0.979060 0.657653 0.621597
v 0.973132 0.619781 0.639287
v 0.972400 0.554977 0.656601
v 0.982258 0.481345 0.661561
v 1.006656 0.400690 0.648275
vn 0.0094 0.0007 0.0034
vn 0.0092 0.0015 0.0036
vn 0.0080 0.0015 0.0058
vn 0.0081 0.0011 0.0058
vn 0.0098 0.0018 -0.0002
vn 0.0100 -0.0002 0.0007
vn 0.0099 0.0011 0.0008
vn 0.0081 -0.0002 0.0059
vn 0.0099 0.0015 0.0007
vt 0.904934 0.818392
vt 0.904903 0.812308
vt 0.905201 0.881400
vt 0.915050 0.818682
vt 0.895256 0.818620
vt 0.911652 0.813843
vt 0.897121 0.815609
vt 0.917374 0.821406
vt 0.922843 0.836664
vt 0.923596 0.850302
vt 0.921208 0.864492
vt 0.916567 0.874593
vt 0.911143 0.878961
vt 0.901691 0.880571
vt 0.897910 0.878317
vt 0.894099 0.874333
vt 0.890339 0.867195
vt 0.886995 0.854825
vt 0.886699 0.840620
vt 0.890818 0.824924
s 1
usemtl Golem_surf.001
f 277/372/267 279/374/268 290/385/269 291/386/269 292/387/269 293/388/269 294/389/269 295/390/269 296/391/269 281/376/270
f 278/373/271 282/377/272 280/375/273 277/372/267
f 281/376/270 283/378/274 278/373/271 277/372/267
f 280/375/273 284/379/275 285/380/275 286/381/275 287/382/275 288/383/275 289/384/275 279/374/268 277/372/267
o Golem_mesh.003
v -1.054612 0.368669 0.590325
v 0.774547 0.368669 -0.879016
v -0.774547 0.368669 -0.879016
v 0.728112 0.368669 -0.910337
v 0.735869 0.696838 -0.846560
v 0.792987 0.368669 -0.837601
v 0.774213 0.340939 -0.878737
v 0.751345 0.346614 -0.894265
v 0.731009 0.362380 -0.908269
v 0.786903 0.351587 -0.850630
v 0.713713 0.388832 -0.916453
v 0.696078 0.432663 -0.920529
v 0.685001 0.469888 -0.921360
v 0.674668 0.524185 -0.918643
v 0.674628 0.592890 -0.906413
v 0.684666 0.646407 -0.890095
v 0.710398 0.686530 -0.865580
v 0.750573 0.682481 -0.818756
v 0.767976 0.644844 -0.793354
v 0.780835 0.596773 -0.781952
v 0.792182 0.534807 -0.778998
v 0.798501 0.476411 -0.786040
v 0.800596 0.420662 -0.801605
v 0.796980 0.382833 -0.823481
v -0.730237 0.368669 -0.908904
v -0.796201 0.368669 -0.830382
v -0.735617 0.698974 -0.846349
v -0.774201 0.339918 -0.878726
v -0.753217 0.680612 -0.813496
v -0.771869 0.636246 -0.787737
v -0.787459 0.577113 -0.774224
v -0.796460 0.519226 -0.775055
v -0.801886 0.468837 -0.781191
v -0.803520 0.413029 -0.797812
v -0.784634 0.346716 -0.855546
v -0.697616 0.427609 -0.920393
v -0.685829 0.488646 -0.917455
v -0.680899 0.539173 -0.911766
v -0.680509 0.578811 -0.904958
v -0.705688 0.676969 -0.870463
v -0.686562 0.644393 -0.889175
v -0.678799 0.612021 -0.900187
v -0.675915 0.579698 -0.907898
v -0.676170 0.541277 -0.914581
v -0.682752 0.482766 -0.920580
v -1.058236 0.368669 0.538512
v -1.054218 0.341987 0.590182
v -1.022784 0.368669 0.634133
v -1.006806 0.699309 0.572925
v -1.054386 0.405224 0.516062
v -1.048850 0.449952 0.500391
v -1.040935 0.506304 0.494102
v -1.032647 0.562513 0.493442
v -1.024080 0.615225 0.504194
v -1.016057 0.659853 0.524304
v -1.010453 0.685940 0.549126
v -0.984944 0.679915 0.607897
v -0.973846 0.645650 0.631795
v -0.969049 0.590916 0.652171
v -0.971092 0.547436 0.660300
v -0.978701 0.486992 0.665036
v -0.992786 0.435213 0.658678
v -1.006873 0.395101 0.649382
v -1.056072 0.347519 0.564875
v -1.036342 0.345804 0.614885
vn -0.0094 0.0007 0.0034
vn -0.0099 0.0012 0.0007
vn -0.0100 -0.0002 0.0007
vn -0.0073 0.0003 0.0068
vn 0.0076 0.0007 -0.0064
vn 0.0075 0.0015 -0.0065
vn 0.0090 0.0015 -0.0040
vn 0.0091 0.0011 -0.0040
vn -0.0076 0.0007 -0.0064
vn -0.0056 0.0013 -0.0082
vn -0.0096 0.0009 -0.0028
vn 0.0048 0.0018 -0.0086
vn 0.0056 -0.0002 -0.0083
vn 0.0056 0.0010 -0.0082
vn 0.0091 -0.0002 -0.0041
vn 0.0055 0.0015 -0.0082
vn -0.0091 0.0012 -0.0041
vn -0.0090 0.0015 -0.0040
vn -0.0076 0.0015 -0.0063
vn -0.0091 -0.0002 -0.0041
vn -0.0055 0.0015 -0.0082
vn -0.0093 0.0015 0.0035
vn -0.0099 0.0015 0.0007
vn -0.0081 0.0012 0.0058
vn -0.0080 0.0015 0.0058
vn -0.0081 -0.0002 0.0059
vt 0.904904 0.818390
vt 0.904369 0.818106
vt 0.905336 0.818390
vt 0.915187 0.818416
vt 0.904636 0.881089
vt 0.895680 0.818310
vt 0.904342 0.812766
vt 0.909712 0.813990
vt 0.914497 0.817175
vt 0.898422 0.814949
vt 0.917997 0.822403
vt 0.920925 0.830969
vt 0.922503 0.838213
vt 0.923450 0.848735
vt 0.921619 0.861918
vt 0.917859 0.872059
vt 0.910820 0.879424
vt 0.898460 0.878604
vt 0.892290 0.871632
vt 0.888855 0.862508
vt 0.886908 0.850627
vt 0.887144 0.839349
vt 0.889227 0.828524
vt 0.893017 0.821115
vt 0.895012 0.818649
vt 0.915539 0.818666
vt 0.904841 0.881782
vt 0.905384 0.812854
vt 0.912181 0.878607
vt 0.918599 0.870367
vt 0.922754 0.859144
vt 0.923854 0.848011
vt 0.923671 0.838273
vt 0.921404 0.827416
vt 0.910262 0.814288
vt 0.888960 0.830211
vt 0.887813 0.842031
vt 0.887986 0.851774
vt 0.888928 0.859381
vt 0.897326 0.877910
vt 0.892041 0.871888
vt 0.889397 0.865767
vt 0.887884 0.859597
vt 0.886941 0.852220
vt 0.886944 0.840926
vt 0.894872 0.818642
vt 0.904948 0.813253
vt 0.915281 0.818671
vt 0.904409 0.881846
vt 0.890854 0.825820
vt 0.888220 0.834535
vt 0.887505 0.845434
vt 0.887875 0.856263
vt 0.890416 0.866320
vt 0.894688 0.874721
vt 0.899702 0.879500
vt 0.912524 0.878512
vt 0.917833 0.872166
vt 0.922065 0.861798
vt 0.923507 0.853463
vt 0.923949 0.841805
vt 0.921854 0.831731
vt 0.919196 0.823897
vt 0.900014 0.814420
vt 0.910803 0.814137
s 1
usemtl Golem_surf.001
f 297/392/276 342/437/277 360/455/278 343/438/279
f 298/393/280 301/396/281 314/409/282 315/410/282 316/411/282 317/412/282 318/413/282 319/414/282 320/415/282 302/397/283
f 299/394/284 321/416/285 324/419/286
f 303/398/287 304/399/288 305/400/288 300/395/289 298/393/280
f 302/397/283 306/401/290 303/398/287 298/393/280
f 300/395/289 307/402/291 308/403/291 309/404/291 310/405/291 311/406/291 312/407/291 313/408/291 301/396/281 298/393/280
f 322/417/292 330/425/293 329/424/293 328/423/293 327/422/293 326/421/293 325/420/293 323/418/294 299/394/284
f 324/419/286 331/426/295 322/417/292 299/394/284
f 323/418/294 336/431/296 337/432/296 338/433/296 339/434/296 335/430/296 334/429/296 333/428/296 332/427/296 321/416/285 299/394/284
f 333/428/296 334/429/296 335/430/296 339/434/296 340/435/296 341/436/296 332/427/296
f 345/440/297 352/447/298 351/446/298 350/445/298 349/444/298 348/443/298 347/442/298 346/441/298 342/437/277 297/392/276
f 344/439/299 359/454/300 358/453/300 357/452/300 356/451/300 355/450/300 354/449/300 353/448/300 345/440/297 297/392/276
f 343/438/279 361/456/301 344/439/299 297/392/276
o Golem_mesh.004
v -0.512452 0.261897 1.011609
v -0.515180 0.265296 1.010731
v -0.500474 0.364658 1.012685
v 0.926078 0.686914 0.010387
v 0.654836 0.686914 -0.775418
v -0.000000 0.686914 -1.100907
v -0.654836 0.686914 -0.775418
v -0.926078 0.686914 0.010387
v -0.668980 0.672769 0.668895
v -0.000000 0.665697 1.121681
v 0.668980 0.672769 0.668895
v 0.926078 0.474754 0.010387
v 0.654836 0.474754 -0.775418
v -0.000000 0.474754 -1.100907
v -0.654836 0.474754 -0.775418
v -0.926078 0.474754 0.010387
v -0.654836 0.474753 0.796192
v -0.000000 0.439393 1.128753
v 0.654836 0.474753 0.796192
v 0.926078 0.241378 0.010387
v 0.654836 0.241378 -0.775418
v -0.000000 0.241378 -1.100907
v -0.654836 0.241378 -0.775418
v -0.926078 0.241378 0.010387
v -0.654836 0.269665 0.895200
v -0.000000 0.303972 1.206227
v 0.654836 0.269665 0.895200
v 0.759384 0.114081 0.010387
v 0.536966 0.114082 -0.633972
v -0.000000 0.114082 -0.900876
v -0.536966 0.114082 -0.633972
v -0.759384 0.114081 0.010387
v -0.607686 0.124323 0.749913
v -0.000000 0.054336 1.095218
v 0.607686 0.124323 0.749913
v 0.429204 0.057506 0.010387
v 0.303493 0.057506 -0.353805
v -0.000000 0.057506 -0.504657
v -0.303493 0.057506 -0.353805
v -0.429204 0.057506 0.010387
v -0.452005 0.057505 0.607955
v -0.000000 0.057505 0.525432
v 0.452005 0.057505 0.607955
v -0.000000 0.123346 1.184983
v 0.482503 0.291934 1.049271
v 0.525932 0.467681 0.960857
v -0.482503 0.291934 1.049271
v -0.525932 0.467681 0.960857
v 0.375619 0.141335 1.076420
v -0.375619 0.141335 1.076420
v 0.268483 0.071649 0.979138
v -0.268483 0.071649 0.979138
v -0.000000 0.036289 0.010387
v -0.000000 0.524257 1.121681
v 0.453911 0.584369 0.952865
v -0.453911 0.584369 0.952865
v 0.241099 0.605223 1.063882
v -0.241099 0.605223 1.063882
v 0.209927 0.418177 1.090770
v 0.187733 0.520200 1.074087
v -0.209927 0.418177 1.090770
v -0.187733 0.520200 1.074087
v 0.220035 0.297953 1.163109
v -0.220035 0.297953 1.163109
v 0.383994 0.665697 1.001365
v -0.383994 0.665697 1.001365
v -0.000000 0.605585 1.121681
v -0.487955 0.313996 1.038172
v -0.486227 0.291453 1.045942
v -0.519996 0.287089 1.015751
v -0.470195 0.254086 1.043865
v -0.512913 0.326405 1.011585
v -0.486804 0.384090 1.009295
v 0.490915 0.325975 1.032146
v 0.499812 0.361978 1.014034
v 0.525959 0.286319 1.010421
v 0.487657 0.291268 1.044663
v 0.471852 0.383080 1.018106
v 0.482866 0.359658 1.022450
v 0.513417 0.322504 1.004947
v 0.491768 0.319185 1.032356
v 0.522691 0.268732 1.005849
v 0.476410 0.256963 1.039840
vn 0.0016 -0.0099 -0.0001
vn -0.0000 -0.0100 0.0001
vn -0.0001 -0.0100 -0.0008
vn 0.0008 -0.0099 -0.0007
vn 0.0075 -0.0000 -0.0066
vn 0.0093 -0.0038 0.0002
vn 0.0100 0.0007 -0.0001
vn -0.0000 -0.0000 -0.0100
vn -0.0075 -0.0000 -0.0066
vn -0.0093 -0.0038 0.0002
vn -0.0100 0.0007 -0.0001
vn -0.0072 -0.0037 0.0058
vn -0.0085 0.0021 0.0049
vn -0.0050 0.0032 0.0080
vn -0.0053 0.0016 0.0083
vn -0.0076 -0.0013 0.0064
vn 0.0070 -0.0037 0.0061
vn 0.0086 0.0019 0.0048
vn 0.0067 -0.0047 -0.0058
vn 0.0095 -0.0031 -0.0002
vn -0.0000 -0.0050 -0.0087
vn -0.0067 -0.0047 -0.0058
vn -0.0095 -0.0031 -0.0002
vn -0.0086 -0.0022 0.0046
vn 0.0086 -0.0014 0.0049
vn 0.0028 -0.0093 -0.0024
vn 0.0054 -0.0084 -0.0003
vn -0.0000 -0.0094 -0.0034
vn -0.0028 -0.0093 -0.0024
vn -0.0054 -0.0084 -0.0003
vn -0.0052 -0.0082 0.0023
vn -0.0001 -0.0046 0.0089
vn -0.0041 -0.0069 0.0060
vn -0.0025 -0.0093 0.0026
vn -0.0005 -0.0096 0.0028
vn 0.0040 -0.0066 0.0063
vn 0.0055 -0.0078 0.0030
vn 0.0077 -0.0013 0.0062
vn 0.0062 -0.0055 0.0056
vn 0.0069 -0.0013 0.0071
vn 0.0055 -0.0002 0.0083
vn -0.0010 -0.0099 -0.0008
vn -0.0016 -0.0099 -0.0002
vn -0.0018 -0.0098 0.0005
vn -0.0000 -0.0100 0.0003
vn 0.0019 -0.0095 0.0024
vn 0.0018 -0.0098 0.0006
vn 0.0071 0.0018 0.0068
vn 0.0037 0.0033 0.0087
vn -0.0001 0.0037 0.0093
vn 0.0001 0.0021 0.0098
vn 0.0028 0.0015 0.0095
vn 0.0025 0.0037 0.0089
vn -0.0028 0.0036 0.0089
vn -0.0027 0.0017 0.0095
vn -0.0077 -0.0011 0.0063
vn -0.0071 0.0025 0.0066
vn -0.0067 0.0028 0.0069
vn -0.0053 -0.0004 0.0085
vn -0.0066 -0.0016 0.0074
vn -0.0062 -0.0055 0.0056
vn -0.0034 0.0009 0.0094
vn -0.0000 0.0005 0.0100
vn 0.0003 0.0014 0.0099
vn -0.0045 0.0008 0.0089
vn 0.0050 0.0005 0.0086
vn 0.0069 0.0024 0.0068
vn 0.0073 -0.0013 0.0067
vn -0.0002 0.0005 0.0100
vn 0.0048 0.0005 0.0088
vn 0.0032 -0.0006 0.0094
vn -0.0002 0.0009 0.0100
vn -0.0030 0.0017 0.0094
vn 0.0027 0.0008 0.0096
vn 0.0032 0.0042 0.0085
vn 0.0057 0.0039 0.0072
vn -0.0032 0.0042 0.0085
vn -0.0030 0.0045 0.0084
vn 0.0003 0.0005 0.0100
vn 0.0071 0.0025 0.0066
vt 0.201263 0.571907
vt 0.200071 0.573357
vt 0.203295 0.620971
vt 0.510388 0.278586
vt 0.603646 0.412122
vt 0.734784 0.457276
vt 0.867884 0.416686
vt 0.966311 0.284860
vt 0.988147 0.136975
vt 0.051060 0.774480
vt 0.402356 0.771466
vt 0.492173 0.133142
vt 0.752403 0.774480
vt 0.548897 0.263939
vt 0.627418 0.380548
vt 0.735421 0.419895
vt 0.844976 0.384151
vt 0.927612 0.269040
vt 0.950150 0.104935
vt 0.093930 0.672279
vt 0.402234 0.665910
vt 0.530037 0.102572
vt 0.710412 0.673128
vt 0.587972 0.249746
vt 0.649934 0.350260
vt 0.735965 0.386457
vt 0.823273 0.353026
vt 0.888382 0.253810
vt 0.906267 0.080397
vt 0.127118 0.566677
vt 0.402446 0.597588
vt 0.573430 0.079462
vt 0.678437 0.565787
vt 0.619516 0.240702
vt 0.666943 0.324758
vt 0.736468 0.354476
vt 0.806967 0.326948
vt 0.856759 0.244060
vt 0.114344 0.464053
vt 0.870377 0.103725
vt 0.402509 0.476706
vt 0.739358 0.016535
vt 0.608266 0.102995
vt 0.692198 0.462886
vt 0.670790 0.231808
vt 0.694133 0.283929
vt 0.737253 0.301791
vt 0.780954 0.285295
vt 0.805708 0.234201
vt 0.830242 0.127368
vt 0.739273 0.137067
vt 0.647754 0.127014
vt 0.402870 0.524024
vt 0.586864 0.585617
vt 0.622981 0.667213
vt 0.218956 0.588251
vt 0.181109 0.667323
vt 0.544742 0.523455
vt 0.261828 0.526028
vt 0.678987 0.043665
vt 0.520825 0.456530
vt 0.285254 0.459139
vt 0.799701 0.043731
vt 0.738160 0.228045
vt 0.402460 0.705092
vt 0.602329 0.727084
vt 0.202317 0.726969
vt 0.504149 0.739268
vt 0.301474 0.740278
vt 0.486467 0.654227
vt 0.481179 0.701440
vt 0.317914 0.654555
vt 0.323533 0.702117
vt 0.481172 0.595705
vt 0.323220 0.595066
vt 0.567153 0.766990
vt 0.237727 0.767377
vt 0.402464 0.743313
vt 0.214205 0.598177
vt 0.216972 0.587785
vt 0.198976 0.583557
vt 0.222406 0.571358
vt 0.199545 0.602521
vt 0.206626 0.630292
vt 0.593860 0.601422
vt 0.601258 0.618137
vt 0.609955 0.580617
vt 0.589603 0.585024
vt 0.591536 0.628592
vt 0.593865 0.617393
vt 0.607996 0.599154
vt 0.594097 0.598207
vt 0.609452 0.572344
vt 0.586502 0.569707
s 1
usemtl Golem_surf.001
f 397/501/302 414/520/303 399/503/304 398/502/305
f 374/471/306 366/461/306 365/460/307 373/470/308
f 375/472/309 367/462/309 366/461/306 374/471/306
f 368/463/310 367/462/309 375/472/309 376/473/310
f 369/464/311 368/463/310 376/473/310 377/474/312
f 370/465/313 369/464/311 377/474/312 378/475/314
f 409/513/315 417/523/316 370/466/317 378/476/314
f 373/470/308 365/460/307 372/468/318 380/478/319
f 382/481/320 374/471/306 373/470/308 381/480/321
f 383/482/322 375/472/309 374/471/306 382/481/320
f 376/473/310 375/472/309 383/482/322 384/483/323
f 377/474/312 376/473/310 384/483/323 385/484/324
f 378/475/314 377/474/312 385/484/324 386/485/325
f 381/480/321 373/470/308 380/478/319 388/488/326
f 390/491/327 382/481/320 381/480/321 389/490/328
f 391/492/329 383/482/322 382/481/320 390/491/327
f 384/483/323 383/482/322 391/492/329 392/493/330
f 385/484/324 384/483/323 392/493/330 393/494/331
f 386/485/325 385/484/324 393/494/331 394/496/332
f 405/509/333 411/515/334 413/518/335 395/497/336
f 410/514/337 396/500/338 388/489/326 437/543/339 443/549/340 444/550/340 438/544/341 406/510/342
f 389/490/328 381/480/321 388/488/326 396/499/338
f 398/502/305 390/491/327 389/490/328 397/501/302
f 399/503/304 391/492/329 390/491/327 398/502/305
f 392/493/330 391/492/329 399/503/304 400/504/343
f 393/494/331 392/493/330 400/504/343 401/505/344
f 394/496/332 393/494/331 401/505/344 402/506/345
f 413/519/335 402/506/345 403/507/346 395/498/336
f 396/499/338 412/516/347 404/508/348
f 397/501/302 389/490/328 396/499/338 404/508/348
f 406/510/342 438/544/341 442/548/349 435/541/350
f 379/477/351 387/487/352 424/530/353 420/526/354
f 379/477/351 422/528/355 425/531/356 387/487/352
f 409/513/315 378/476/314 386/486/325 431/537/357 433/539/358 364/459/359
f 425/531/356 405/509/333 387/487/352
f 405/509/333 424/530/353 387/487/352
f 411/515/334 408/512/360 430/536/361 432/538/362 362/457/362 363/458/362 431/537/357 386/486/325 394/495/332
f 405/509/333 395/497/336 412/517/347 410/514/337
f 411/515/334 394/495/332 413/518/335
f 413/519/335 394/496/332 402/506/345
f 412/516/347 395/498/336 403/507/346 404/508/348
f 412/517/347 396/500/338 410/514/337
f 402/506/345 401/505/344 414/520/303 403/507/346
f 397/501/302 404/508/348 403/507/346 414/520/303
f 401/505/344 400/504/343 399/503/304 414/520/303
f 419/525/363 428/534/364 371/467/365 427/533/366
f 416/522/367 407/511/368 380/479/319 372/469/369
f 416/522/367 372/469/370 426/532/371 418/524/372
f 415/521/373 428/534/364 419/525/363 423/529/374
f 420/526/354 407/511/368 421/527/375
f 421/527/375 415/521/373 379/477/351 420/526/354
f 422/528/355 379/477/351 415/521/373 423/529/374
f 423/529/374 409/513/315 422/528/355
f 424/530/353 406/510/342 435/541/350 440/546/376 439/545/376 436/542/377 407/511/368 420/526/354
f 422/528/355 409/513/315 364/459/359 434/540/378 429/535/379 408/512/360 425/531/356
f 407/511/368 416/522/367 418/524/372 421/527/375
f 423/529/374 419/525/363 417/523/316 409/513/315
f 425/531/356 408/512/360 411/515/334 405/509/333
f 405/509/333 410/514/337 406/510/342 424/530/353
f 427/533/366 370/466/380 417/523/316 419/525/363
f 428/534/364 415/521/373 421/527/375 418/524/372
f 428/534/364 418/524/372 426/532/371 371/467/365
f 436/542/377 441/547/381 437/543/339 388/489/326 380/479/319 407/511/368
f 429/535/379 430/536/361 408/512/360
